{ "dssatConf" : {
    "runDirectory" : "C:\\Users\\kroppian\\Desktop\\deletemeRun",
    "cropType" : "Maize",
    "institutionCode" : "UF",
    "siteCode" : "GA",
    "year" : 82 ,
    "experimentNumber": 1,
    "executablePath":"C:\\DSSAT47\\DSCSM047.EXE",
    "experimentFilePath":"C:\\DSSAT47\\Maize\\UFGA8201.MZX",
    "weatherFilePath": "C:\\DSSAT47\\Weather\\UFGA8201.WTH"
  },

  "unsgaIIIConf" : {
    "threads" : 1,
    "population" : 100,
    "outputDir" : "C:\\Users\\kroppian\\Desktop\\deletemeOut",
    "generations" : 1000,
    "runs" : 1,
    "logLevel" : 1
  },

  "objectives" : [
    {"type":"YIELD",
      "scaling" : {"min" : 0, "max" : 1}},
    {"type": "TOTAL_WATER",
      "scaling" : {"min" : 0, "max" : 1}},
    {"type": "TOTAL_NITROGEN",
      "scaling" : {"min" : 0, "max" : 1}}
  ],

	
  "constraint-periods": [],


  "application-periods" :
    [ {"type": "water",
        "start-date":"1982-03-04",
        "end-date":"1982-03-04",
        "applied-min" : 0,
        "applied-max" : 50,
        "total-applied-min": 0,
        "total-applied-max" : 50,
        "times-applied-max" : 1,
        "times-applied-min" : 1 },
      {"type": "water",
        "start-date":"1982-03-18",
        "end-date":"1982-03-18",
        "applied-min" : 0,
        "applied-max" : 50,
        "total-applied-min": 0,
        "total-applied-max" : 50,
        "times-applied-max" : 1,
        "times-applied-min" : 1 },
      {"type": "water",
        "start-date":"1982-04-04",
        "end-date":"1982-04-04",
        "applied-min" : 0,
        "applied-max" : 50,
        "total-applied-min": 0,
        "total-applied-max" : 50,
        "times-applied-max" : 1,
        "times-applied-min" : 1 },
      {"type": "water",
        "start-date":"1982-04-17",
        "end-date":"1982-04-17",
        "applied-min" : 0,
        "applied-max" : 50,
        "total-applied-min": 0,
        "total-applied-max" : 50,
        "times-applied-max" : 1,
        "times-applied-min" : 1 },
      {"type": "water",
        "start-date":"1982-04-21",
        "end-date":"1982-04-21",
        "applied-min" : 0,
        "applied-max" : 50,
        "total-applied-min": 0,
        "total-applied-max" : 50,
        "times-applied-max" : 1,
        "times-applied-min" : 1 },
      {"type": "water",
        "start-date":"1982-05-02",
        "end-date":"1982-05-02",
        "applied-min" : 0,
        "applied-max" : 50,
        "total-applied-min": 0,
        "total-applied-max" : 50,
        "times-applied-max" : 1,
        "times-applied-min" : 1 },
      {"type": "water",
        "start-date":"1982-05-06",
        "end-date":"1982-05-06",
        "applied-min" : 0,
        "applied-max" : 50,
        "total-applied-min": 0,
        "total-applied-max" : 50,
        "times-applied-max" : 1,
        "times-applied-min" : 1 },
      {"type": "water",
        "start-date":"1982-05-09",
        "end-date":"1982-05-09",
        "applied-min" : 0,
        "applied-max" : 50,
        "total-applied-min": 0,
        "total-applied-max" : 50,
        "times-applied-max" : 1,
        "times-applied-min" : 1 },
      {"type": "water",
        "start-date":"1982-05-12",
        "end-date":"1982-05-12",
        "applied-min" : 0,
        "applied-max" : 50,
        "total-applied-min": 0,
        "total-applied-max" : 50,
        "times-applied-max" : 1,
        "times-applied-min" : 1 },
      {"type": "water",
        "start-date":"1982-05-14",
        "end-date":"1982-05-14",
        "applied-min" : 0,
        "applied-max" : 50,
        "total-applied-min": 0,
        "total-applied-max" : 50,
        "times-applied-max" : 1,
        "times-applied-min" : 1 },
      {"type": "water",
        "start-date":"1982-05-17",
        "end-date":"1982-05-17",
        "applied-min" : 0,
        "applied-max" : 50,
        "total-applied-min": 0,
        "total-applied-max" : 50,
        "times-applied-max" : 1,
        "times-applied-min" : 1 },
      {"type": "water",
        "start-date":"1982-05-21",
        "end-date":"1982-05-21",
        "applied-min" : 0,
        "applied-max" : 50,
        "total-applied-min": 0,
        "total-applied-max" : 50,
        "times-applied-max" : 1,
        "times-applied-min" : 1 },
      {"type": "water",
        "start-date":"1982-05-28",
        "end-date":"1982-05-28",
        "applied-min" : 0,
        "applied-max" : 50,
        "total-applied-min": 0,
        "total-applied-max" : 50,
        "times-applied-max" : 1,
        "times-applied-min" : 1 },
      {"type": "water",
        "start-date":"1982-06-07",
        "end-date":"1982-06-07",
        "applied-min" : 0,
        "applied-max" : 50,
        "total-applied-min": 0,
        "total-applied-max" : 50,
        "times-applied-max" : 1,
        "times-applied-min" : 1 },
      {"type": "water",
        "start-date":"1982-06-10",
        "end-date":"1982-06-10",
        "applied-min" : 0,
        "applied-max" : 50,
        "total-applied-min": 0,
        "total-applied-max" : 50,
        "times-applied-max" : 1,
        "times-applied-min" : 1 },
      {"type": "water",
        "start-date":"1982-06-11",
        "end-date":"1982-06-11",
        "applied-min" : 0,
        "applied-max" : 50,
        "total-applied-min": 0,
        "total-applied-max" : 50,
        "times-applied-max" : 1,
        "times-applied-min" : 1 },
      {"type": "nitrogen",
        "start-date":"1982-03-15",
        "end-date":"1982-03-15",
        "applied-min" : 0,
        "applied-max" : 150,
        "total-applied-min": 0,
        "total-applied-max" : 150,
        "times-applied-max" : 1,
        "times-applied-min" : 1 },
      {"type": "nitrogen",
        "start-date":"1982-03-30",
        "end-date":"1982-03-30",
        "applied-min" : 0,
        "applied-max" : 150,
        "total-applied-min": 0,
        "total-applied-max" : 150,
        "times-applied-max" : 1,
        "times-applied-min" : 1 },
      {"type": "nitrogen",
        "start-date":"1982-04-12",
        "end-date":"1982-04-12",
        "applied-min" : 0,
        "applied-max" : 150,
        "total-applied-min": 0,
        "total-applied-max" : 150,
        "times-applied-max" : 1,
        "times-applied-min" : 1 },
      {"type": "nitrogen",
        "start-date":"1982-04-28",
        "end-date":"1982-04-28",
        "applied-min" : 0,
        "applied-max" : 150,
        "total-applied-min": 0,
        "total-applied-max" : 150,
        "times-applied-max" : 1,
        "times-applied-min" : 1 },
      {"type": "nitrogen",
        "start-date":"1982-05-07",
        "end-date":"1982-05-07",
        "applied-min" : 0,
        "applied-max" : 150,
        "total-applied-min": 0,
        "total-applied-max" : 150,
        "times-applied-max" : 1,
        "times-applied-min" : 1 },
      {"type": "nitrogen",
        "start-date":"1982-05-17",
        "end-date":"1982-05-17",
        "applied-min" : 0,
        "applied-max" : 150,
        "total-applied-min": 0,
        "total-applied-max" : 150,
        "times-applied-max" : 1,
        "times-applied-min" : 1 }


    ]


}
